[
  {
    "address1": "97 Boulevard de Normandie",
    "address2": "",
    "city": "Fontenay-sous-bois",
    "state": "",
    "country": "FR",
    "postalCode": "94120",
    "coordinates": { "lat": 51.5072, "lng": 0.1276 }
  },
  {
    "address1": "30 Place de la Madeleine",
    "address2": "",
    "city": "Paris",
    "state": "",
    "country": "FR",
    "postalCode": "75008",
    "coordinates": { "lat": 51.5072, "lng": 0.1276 }
  }
]